"draw","simulated","PValue","SupWald"
1,0,1,NA
2,1,1,55.2316404498526
3,1,1,45.2505023742911
4,0,1,NA
5,0,1,NA
6,1,0.76,10.9597934529821
7,1,1,250.775113290293
8,0,1,NA
9,1,1,204.011864675144
10,1,1,225.751808242529
11,0,1,NA
12,0,1,NA
13,1,1,99.4382664483948
14,1,1,164.663628445182
15,1,1,207.142594597543
16,1,0.35,6.05307443569656
17,1,0.37,10.0547507491085
18,1,1,157.189313476538
19,0,1,NA
20,0,1,NA
21,1,1,137.547184864386
22,1,1,49.0470755173198
23,1,1,193.35856571553
24,1,1,214.684790763725
25,1,1,155.785346060189
26,0,1,NA
27,0,1,NA
28,1,0.8,20.2218821317057
29,1,1,177.526611052881
30,1,1,63.6160020510546
31,1,1,183.844422854105
32,0,1,NA
33,1,1,112.937876424678
34,1,0.83,13.6249001261061
35,0,1,NA
36,0,1,NA
37,1,1,56.6111294611674
38,1,0.31,17.3658759265306
39,1,1,38.0429917707688
40,1,1,226.09699382135
41,1,0.42,19.9362064755364
42,1,0.41,19.1342118501941
43,0,1,NA
44,1,1,162.611860123002
45,1,0.77,11.1438055978766
46,0,1,NA
47,0,1,NA
48,0,1,NA
49,0,1,NA
50,1,1,235.699138946347
51,1,1,189.701856482934
52,0,1,NA
53,1,1,93.8185762791803
54,1,1,97.8547875717135
55,1,1,100.35637284616
56,1,0.87,11.8395946716634
57,1,1,313.609048656389
58,1,1,31.1516928619789
59,1,1,8.70393670376507
60,1,1,257.477682461972
61,1,1,126.679329581281
62,1,0.97,83.8436157457712
63,0,1,NA
64,1,1,61.4664907307968
65,1,1,99.4347505095896
66,0,1,NA
67,1,0.98,102.959841886218
68,1,1,84.8364466545628
69,0,1,NA
70,0,1,NA
71,0,1,NA
72,1,1,53.3949470726809
73,1,1,74.522038107941
74,1,1,31.4756825438858
75,1,1,112.272892876888
76,1,1,218.306925374074
77,0,1,NA
78,1,1,225.797835775535
79,1,0.68,18.2446871474069
80,0,1,NA
81,1,0.74,22.7850507557538
82,1,1,44.9577677369638
83,1,1,202.727291977232
84,1,0.43,18.0753778906211
85,1,0.59,13.8282757841254
86,0,1,NA
87,0,1,NA
88,1,1,232.358399334428
89,1,1,152.772329888484
90,1,1,213.256875032598
91,1,1,157.193969392381
92,0,1,NA
93,1,1,86.9296525067311
94,0,1,NA
95,0,1,NA
96,1,0.89,66.921088199245
97,0,1,NA
98,1,0.72,13.7832693051825
99,1,1,138.456911728677
100,1,1,77.5416482572748
101,0,1,NA
102,1,1,195.61850702984
103,0,1,NA
104,1,1,186.085377596839
105,0,1,NA
106,1,0.93,63.204883325127
107,1,1,69.2449236860544
108,1,1,182.44729603209
109,1,0.86,11.2621553536338
110,1,0.31,20.7601327906825
111,0,1,NA
112,0,1,NA
113,1,0.99,111.436643846526
114,1,1,92.2414949973457
115,1,1,236.317228359791
116,1,0.51,22.9625864414568
117,1,1,66.317771687373
118,0,1,NA
119,1,1,186.64638310488
120,0,1,NA
121,0,1,NA
122,0,1,NA
123,0,1,NA
124,1,0.55,13.4702130192704
125,1,0.21,18.9141832139798
126,1,1,192.402817881713
127,0,1,NA
128,0,1,NA
129,1,1,160.183443393037
130,0,1,NA
131,1,1,202.805409773712
132,1,1,307.520744639749
133,0,1,NA
134,1,1,203.06628192277
135,1,1,216.117257428904
136,0,1,NA
137,1,1,212.358713835983
138,1,1,80.4871862622806
139,1,1,51.1246717368537
140,0,1,NA
141,0,1,NA
142,0,1,NA
143,1,1,63.1884955319523
144,1,1,208.658789341694
145,0,1,NA
146,0,1,NA
147,1,1,191.581665159277
148,0,1,NA
149,0,1,NA
150,0,1,NA
151,1,1,184.867841805661
152,0,1,NA
153,0,1,NA
154,1,0.47,15.6980255196506
155,0,1,NA
156,1,0.15,15.0917076103
157,0,1,NA
158,0,1,NA
159,1,1,88.6093947301421
160,1,1,11.2994080170987
161,1,1,171.238738374511
162,0,1,NA
163,1,1,173.325237791369
164,0,1,NA
165,1,0.86,80.8729113010929
166,1,1,218.469153005429
167,0,1,NA
168,1,1,49.424691060943
169,0,1,NA
170,1,1,84.6003852173715
171,1,1,270.504798753558
172,1,1,298.893582043852
173,0,1,NA
174,0,1,NA
175,0,1,NA
176,0,1,NA
177,0,1,NA
178,1,1,209.025368524455
179,1,1,10.403560920825
180,0,1,NA
181,1,0.56,11.4896915410461
182,0,1,NA
183,0,1,NA
184,0,1,NA
185,1,1,223.608833173023
186,0,1,NA
187,0,1,NA
188,1,1,95.5943774757951
189,0,1,NA
190,1,1,71.1153760599898
191,1,1,201.84606130962
192,1,1,234.036495879182
193,0,1,NA
194,1,1,171.698266828673
195,1,0.98,70.9758703209632
196,0,1,NA
197,1,1,40.902639376552
198,0,1,NA
199,1,1,175.059528867889
200,0,1,NA
201,1,0.99,77.9107813788872
202,0,1,NA
203,1,1,193.77687463409
204,1,1,171.176967231692
205,0,1,NA
206,0,1,NA
207,0,1,NA
208,0,1,NA
209,1,1,101.19196770947
210,1,1,161.593313354452
211,0,1,NA
212,0,1,NA
213,0,1,NA
214,0,1,NA
215,0,1,NA
216,0,1,NA
217,0,1,NA
218,0,1,NA
219,0,1,NA
220,0,1,NA
221,0,1,NA
222,0,1,NA
223,1,1,189.23142871776
224,1,1,72.6200131692818
225,0,1,NA
226,1,1,59.2297679337393
227,1,0.14,24.7211796495176
228,0,1,NA
229,1,1,61.4985187706527
230,1,0.38,12.9867828094657
231,0,1,NA
232,0,1,NA
233,1,1,196.898272699864
234,1,0.64,24.9259255210409
235,1,0.5,22.4995804640014
236,1,0.97,17.4396211012987
237,1,1,62.3958427111348
238,1,1,43.8995725671585
239,1,1,137.029830735806
240,0,1,NA
241,1,1,226.994427895839
242,0,1,NA
243,1,1,175.031019170555
244,0,1,NA
245,1,0.99,44.7255234911852
246,1,1,100.318052190631
247,1,1,153.849940740521
248,1,0.88,18.5513400252224
249,0,1,NA
250,1,1,118.331072689524
251,1,0.07,18.0481967222462
252,0,1,NA
253,1,0.08,24.1815437291064
254,1,1,28.1207203003392
255,0,1,NA
256,0,1,NA
257,0,1,NA
258,0,1,NA
259,0,1,NA
260,1,0.99,74.9657842369764
261,0,1,NA
262,0,1,NA
263,1,1,205.442352581676
264,1,1,177.742880730309
265,0,1,NA
266,0,1,NA
267,1,1,68.2564644501867
268,0,1,NA
269,0,1,NA
270,0,1,NA
271,1,0.48,10.15001494719
272,1,1,128.984708819548
273,1,1,121.550650125231
274,1,1,232.138448194471
275,1,1,182.240650290345
276,0,1,NA
277,0,1,NA
278,1,1,9.20086513642148
279,0,1,NA
280,1,1,174.348053603154
281,1,1,80.1031119161735
282,0,1,NA
283,1,1,174.70330688891
284,1,1,220.294347948451
285,0,1,NA
286,1,1,57.1054352752536
287,1,1,124.002632302454
288,1,1,221.584161771064
289,0,1,NA
290,0,1,NA
291,1,1,31.6277477646827
292,1,0.99,131.342936268517
293,1,1,191.603138962468
294,0,1,NA
295,0,1,NA
296,1,1,311.564773006666
297,1,1,142.695660342716
298,1,1,198.464297430783
299,1,0.14,12.450204434987
300,0,1,NA
301,1,1,233.437694541758
302,1,0.1,16.1228802228512
303,1,1,142.095598437849
304,1,1,63.9873583632654
305,1,1,174.063419726279
306,0,1,NA
307,1,1,193.049717263027
308,1,1,96.7182210344532
309,0,1,NA
310,0,1,NA
311,0,1,NA
312,1,1,177.440849643097
313,1,0.94,63.4745771378578
314,0,1,NA
315,1,0.91,39.8009658734553
316,1,1,88.1962472060198
317,0,1,NA
318,0,1,NA
319,1,1,102.420897628869
320,1,1,85.8118525476853
321,1,1,224.49684391886
322,0,1,NA
323,1,1,176.116757595156
324,0,1,NA
325,1,1,127.374409917398
326,1,1,223.101667096334
327,1,1,217.119249237695
328,0,1,NA
329,0,1,NA
330,0,1,NA
331,0,1,NA
332,0,1,NA
333,1,1,196.230625500003
334,1,0.97,61.2402580430822
335,1,1,47.6129778509374
336,1,1,180.827157133266
337,0,1,NA
338,1,1,201.062730727725
339,0,1,NA
340,1,0.99,192.02096524617
341,1,1,197.744943478457
342,0,1,NA
343,1,1,180.396341489821
344,1,1,198.855705072035
345,0,1,NA
346,0,1,NA
347,1,1,221.003742020268
348,1,1,178.663056549411
349,0,1,NA
350,1,1,144.443827004579
351,0,1,NA
352,0,1,NA
353,0,1,NA
354,1,1,228.076913675479
355,1,1,83.253858978344
356,0,1,NA
357,1,1,210.845822003228
358,0,1,NA
359,0,1,NA
360,0,1,NA
361,0,1,NA
362,1,1,45.5756056507172
363,1,1,176.966350819882
364,1,1,100.89976989027
365,1,0.41,20.5781383572505
366,1,1,210.575015558093
367,1,1,176.388178838821
368,1,1,175.333685567216
369,0,1,NA
370,0,1,NA
371,1,1,207.527933745172
372,1,1,178.846614731273
373,1,1,42.238873735833
374,0,1,NA
375,1,1,166.182886863779
376,1,1,41.2430435730938
377,0,1,NA
378,0,1,NA
379,0,1,NA
380,1,1,177.169565150653
381,1,0.91,65.9790336473621
382,1,1,189.132150747799
383,1,1,161.436921392758
384,0,1,NA
385,1,1,37.0666292963782
386,0,1,NA
387,1,1,122.785122599608
388,1,0.79,92.7680973455765
389,0,1,NA
390,0,1,NA
391,1,1,178.323444803502
392,1,1,153.258755307742
393,1,0.99,90.3443034331262
394,0,1,NA
395,0,1,NA
396,1,0.97,67.2290189863582
397,1,1,67.6657868997635
398,1,1,70.75810249664
399,1,0.98,123.095288517365
400,0,1,NA
401,1,1,218.46028334975
402,1,1,6.2750866911145
403,1,0.1,12.1296078181176
404,0,1,NA
405,1,1,141.289148487494
406,1,0.99,104.745502755775
407,1,0.99,77.4688357989718
408,1,0.82,12.1340190336897
409,1,1,104.419029475207
410,1,1,316.33114599124
411,1,0.21,20.4927218181141
412,1,1,68.1835073982129
413,0,1,NA
414,1,0.32,16.2089409811958
415,1,0.14,12.4244332404642
416,1,1,245.79355651387
417,1,1,166.538064477178
418,0,1,NA
419,1,1,238.976650997363
420,1,0.53,15.3441821281443
421,0,1,NA
422,1,1,207.835286757434
423,1,1,111.909502761083
424,1,1,167.867664488904
425,1,1,182.37341651317
426,0,1,NA
427,0,1,NA
428,1,1,64.1332196973609
429,1,0.41,11.5493773883527
430,1,1,110.426504335477
431,1,1,165.980865159575
432,1,1,168.513017895496
433,0,1,NA
434,1,0.07,8.9603495326432
435,0,1,NA
436,1,1,290.766045881005
437,1,1,165.492087214426
438,0,1,NA
439,1,1,156.991967457091
440,1,1,181.282422683702
441,0,1,NA
442,0,1,NA
443,1,1,220.153432872
444,1,1,194.778289516836
445,0,1,NA
446,1,1,194.673709799077
447,1,1,49.8608036022655
448,0,1,NA
449,0,1,NA
450,0,1,NA
451,1,1,38.2795784911733
452,1,1,153.700057343323
453,1,1,234.679882545022
454,0,1,NA
455,1,1,211.521061358662
456,0,1,NA
457,1,1,93.1780341783035
458,1,1,153.177938093645
459,1,1,23.7187050020577
460,1,0.68,27.5150031430976
461,1,0.37,10.6201944520499
462,1,1,166.444536534432
463,0,1,NA
464,0,1,NA
465,1,0.74,16.9804492072651
466,0,1,NA
467,1,0.98,11.1717581462004
468,1,0.85,6.78162985409389
469,0,1,NA
470,1,0.44,23.0570329958717
471,1,0.76,79.0511605230082
472,1,1,202.084871546593
473,1,1,185.93827033876
474,1,0.29,13.1988196723786
475,1,0.99,15.4991961259239
476,1,1,274.810200271744
477,1,1,117.393473902911
478,1,0.09,30.6245130400206
479,1,1,261.969939753525
480,1,1,118.153200765781
481,1,1,169.827867257997
482,1,1,190.211121360268
483,0,1,NA
484,1,0.14,16.5501175527071
485,1,1,205.265097280144
486,0,1,NA
487,1,1,143.732565634733
488,1,1,50.564311408259
489,0,1,NA
490,1,1,199.403895749234
491,0,1,NA
492,1,1,176.631518480042
493,1,0.55,24.2668940869561
494,1,1,184.080323903621
495,1,1,20.4371471262565
496,1,0.98,19.4099379831961
497,0,1,NA
498,1,1,132.113833054091
499,0,1,NA
500,0,1,NA
501,1,1,195.287813292316
502,1,1,61.8780233687591
503,0,1,NA
504,0,1,NA
505,1,1,250.63034750742
506,0,1,NA
507,1,1,207.655057713773
508,0,1,NA
509,0,1,NA
510,1,1,199.728180345002
511,1,1,152.893203428358
512,1,0.99,127.948999151737
513,0,1,NA
514,1,1,231.569100179611
515,1,1,196.408290635751
516,1,1,54.5164187068191
517,0,1,NA
518,0,1,NA
519,0,1,NA
520,0,1,NA
521,1,1,310.56024188737
522,0,1,NA
523,1,0.83,422.244163356123
524,1,1,313.765331170701
525,1,1,267.309467489335
526,1,1,229.001133812862
527,0,1,NA
528,1,1,85.3850927404504
529,1,1,239.95637304928
530,1,1,66.5779245762461
531,0,1,NA
532,1,1,331.038022231663
533,0,1,NA
534,0,1,NA
535,1,1,236.827231291815
536,1,1,271.986115792539
537,1,1,141.564039496372
538,1,1,226.224070184891
539,0,1,NA
540,0,1,NA
541,0,1,NA
542,1,1,112.899598988753
543,0,1,NA
544,0,1,NA
545,1,1,307.366452651789
546,0,1,NA
547,0,1,NA
548,1,1,125.484458980651
549,1,1,181.848421053553
550,0,1,NA
551,1,1,299.555069224086
552,0,1,NA
553,0,1,NA
554,0,1,NA
555,0,1,NA
556,0,1,NA
557,0,1,NA
558,0,1,NA
559,0,1,NA
560,1,1,313.93090822846
561,0,1,NA
562,0,1,NA
563,1,1,311.214143372202
564,1,0.98,103.10534416929
565,0,1,NA
566,1,1,143.073081134561
567,0,1,NA
568,0,1,NA
569,0,1,NA
570,1,1,293.951170390328
571,0,1,NA
572,1,1,57.1421197719548
573,0,1,NA
574,1,1,127.607553532422
575,1,1,303.072643013559
576,0,1,NA
577,1,0.52,11.8767797576103
578,1,1,230.733254400648
579,1,1,71.5040798469554
580,0,1,NA
581,1,1,285.638824704363
582,0,1,NA
583,0,1,NA
584,1,1,237.686765506285
585,0,1,NA
586,0,1,NA
587,0,1,NA
588,0,1,NA
589,0,1,NA
590,1,1,246.827263613046
591,0,1,NA
592,0,1,NA
593,1,0.99,280.157375767937
594,1,0.93,100.739292877776
595,0,1,NA
596,1,1,48.9924527009871
597,1,0.9,83.4731144014436
598,1,1,163.523435530395
599,1,1,345.156628091827
600,0,1,NA
601,1,1,278.532712712036
602,1,1,327.510185735233
603,1,0.84,340.929718198138
604,0,1,NA
605,0,1,NA
606,1,1,177.296330695743
607,1,1,322.484659454238
608,1,1,234.548519850611
609,1,1,84.9509984268664
610,1,1,279.38126801996
611,1,1,132.348260613297
612,1,1,292.292858742019
613,1,1,197.648564965452
614,1,0.99,57.1693171427995
615,1,1,222.563623755497
616,0,1,NA
617,0,1,NA
618,1,1,192.641410426964
619,1,1,411.388507027888
620,0,1,NA
621,0,1,NA
622,1,1,48.4086705323346
623,1,1,58.1502999452732
624,1,1,118.744602186747
625,1,1,124.719307385421
626,1,1,323.169331968243
627,1,1,289.170840603761
628,0,1,NA
629,1,1,210.443953162279
630,1,1,353.125688008865
631,1,1,292.766332580349
632,1,1,234.980457025274
633,0,1,NA
634,1,1,172.373906572488
635,1,1,200.464608908818
636,1,1,251.703175657278
637,1,1,313.234286978019
638,0,1,NA
639,1,1,63.4602596608161
640,1,1,143.888225324641
641,0,1,NA
642,1,0.84,404.886442839998
643,0,1,NA
644,1,1,345.683569477951
645,0,1,NA
646,0,1,NA
647,1,1,213.842567525409
648,1,1,293.210377543237
649,0,1,NA
650,0,1,NA
651,1,1,248.880146244621
652,0,1,NA
653,1,1,299.856683888546
654,1,1,95.3172465225814
655,1,1,320.417085001346
656,1,1,321.679114519604
657,0,1,NA
658,1,1,276.266726592178
659,1,1,197.089628742336
660,1,1,293.115472590588
661,1,1,151.670051400489
662,1,1,279.301128701195
663,0,1,NA
664,1,1,315.456970672811
665,1,1,43.457774908346
666,1,1,197.01588762843
667,1,1,61.5595575501755
668,1,1,180.731128825247
669,1,1,78.2427656396953
670,1,1,332.151400550112
671,1,1,352.933210097504
672,1,1,77.6365611932166
673,1,1,188.853451552022
674,1,1,322.319465152216
675,1,1,325.200446763318
676,0,1,NA
677,1,1,158.013857933237
678,1,1,186.267489944452
679,1,1,58.90014763043
680,0,1,NA
681,1,1,125.089280767287
682,1,1,35.215844652341
683,1,1,249.213315276597
684,1,1,355.694568415376
685,1,1,369.696731667508
686,1,1,257.584468886281
687,1,1,244.139930428835
688,1,1,265.373815529253
689,0,1,NA
690,1,1,229.888481536373
691,1,1,167.534001573485
692,1,0.67,25.2045483138118
693,0,1,NA
694,1,1,239.434634744891
695,1,0.99,95.6689556371409
696,0,1,NA
697,1,1,66.3844948651294
698,1,1,197.501926495627
699,0,1,NA
700,1,1,217.855564685109
701,1,1,175.002585803564
702,1,1,289.190534682865
703,1,1,303.777936729975
704,1,1,183.727511923364
705,0,1,NA
706,1,1,249.188989486147
707,0,1,NA
708,0,1,NA
709,1,1,260.847719303921
710,1,1,39.183987072313
711,1,1,199.391758050372
712,1,1,213.271755377218
713,0,1,NA
714,1,1,183.503597066446
715,1,1,95.5063500553448
716,1,1,155.846697399775
717,1,1,296.957352384986
718,1,1,85.338523362511
719,1,1,96.3986697530017
720,0,1,NA
721,1,0.98,283.52181756418
722,1,1,270.037223352017
723,1,1,246.548020750859
724,0,1,NA
725,1,0.78,350.409367940744
726,1,1,233.703133974899
727,1,1,144.294526849644
728,0,1,NA
729,1,1,245.859983026286
730,1,1,119.453316025843
731,0,1,NA
732,1,0.98,259.913339820936
733,0,1,NA
734,1,1,300.568564790058
735,1,0.99,298.566339964561
736,0,1,NA
737,1,1,104.827297250242
738,0,1,NA
739,1,1,233.125720072559
740,0,1,NA
741,0,1,NA
742,0,1,NA
743,1,1,163.835344965694
744,0,1,NA
745,0,1,NA
746,1,1,354.786731209514
747,0,1,NA
748,1,1,116.30516043786
749,1,1,189.201895483529
750,0,1,NA
751,1,1,149.813130811574
752,0,1,NA
753,1,1,281.68274628974
754,1,1,264.989998603781
755,1,1,218.163743591618
756,0,1,NA
757,0,1,NA
758,1,1,171.966179240797
759,0,1,NA
760,1,1,218.10262254815
761,1,1,78.5699895977241
762,1,1,103.913085095803
763,0,1,NA
764,1,1,191.86211621939
765,1,1,179.721317528486
766,1,1,234.415598979943
767,1,1,224.326450435797
768,1,1,154.656658257847
769,0,1,NA
770,0,1,NA
771,1,0.12,325.524615026757
772,1,1,118.257298912177
773,1,1,183.81050615014
774,1,1,355.544653962195
775,0,1,NA
776,0,1,NA
777,0,1,NA
778,0,1,NA
779,0,1,NA
780,1,1,335.277648607935
781,1,1,280.254046481861
782,0,1,NA
783,1,1,207.815397544195
784,0,1,NA
785,1,1,223.236288580315
786,1,1,95.8898376494139
787,0,1,NA
788,1,1,225.72768189393
789,1,1,190.478507454001
790,1,1,258.860043095738
791,1,1,85.7991282232831
792,0,1,NA
793,1,1,170.130782637053
794,0,1,NA
795,0,1,NA
796,1,1,202.875113491251
797,1,1,181.890520102638
798,1,1,312.747341511122
799,1,1,72.5451796912967
800,0,1,NA
801,1,1,406.296255116801
802,1,1,96.8488919243178
803,1,1,177.34354905153
804,1,1,262.845246691159
805,0,1,NA
806,1,1,77.3272956275685
807,0,1,NA
808,1,1,221.372851541588
809,1,1,33.2218575200723
810,0,1,NA
811,1,1,248.394704935908
812,1,1,185.547664263652
813,0,1,NA
814,1,1,328.022019321724
815,1,1,70.4295269287178
816,0,1,NA
817,0,1,NA
818,0,1,NA
819,1,1,242.436026919906
820,0,1,NA
821,1,1,267.773749543667
822,1,1,253.732535918237
823,1,1,210.489246725534
824,0,1,NA
825,1,1,42.7755434844443
826,1,1,311.767894537065
827,1,1,246.096012298618
828,0,1,NA
829,0,1,NA
830,1,1,185.802773247699
831,0,1,NA
832,1,1,332.50175917718
833,1,1,209.775570847015
834,1,1,63.3190114044978
835,1,1,81.3023630773537
836,1,1,345.276051598269
837,1,1,224.735187896306
838,0,1,NA
839,1,1,180.260661593427
840,1,1,182.472259337699
841,1,0.99,212.731403676816
842,1,1,55.483051834894
843,0,1,NA
844,1,1,327.425974828581
845,1,0.99,135.259847785024
846,1,1,180.813443746686
847,1,1,216.353291433945
848,1,1,201.070808603233
849,0,1,NA
850,0,1,NA
851,0,1,NA
852,0,1,NA
853,0,1,NA
854,0,1,NA
855,1,1,17.8946853808348
856,1,0.99,41.7459826167508
857,1,1,168.103977406447
858,1,1,136.580403018663
859,0,1,NA
860,1,1,301.921895915465
861,1,1,227.243624533618
862,0,1,NA
863,1,1,325.861286892046
864,1,1,298.358067334252
865,1,1,127.0330225145
866,1,1,219.444774601882
867,1,1,132.24890673586
868,1,1,215.396878351617
869,1,1,155.960207782505
870,0,1,NA
871,1,1,423.265980426465
872,1,1,337.307539043743
873,0,1,NA
874,0,1,NA
875,1,1,256.07812128917
876,1,1,271.865697187129
877,0,1,NA
878,1,0.99,330.989352248741
879,0,1,NA
880,1,1,203.743720813994
881,0,1,NA
882,1,1,328.869937465105
883,1,1,340.081335451728
884,1,1,104.959973720566
885,1,1,50.5043554651222
886,1,1,165.229759479406
887,0,1,NA
888,1,1,67.5923362361044
889,1,1,288.741796427366
890,1,1,148.512318443116
891,1,1,268.349616209572
892,1,1,143.801840195849
893,1,1,345.90530236203
894,1,0.97,98.2069301666593
895,1,1,165.759735639346
896,1,1,234.586083563908
897,0,1,NA
898,1,1,45.4461598506172
899,1,1,193.318641708657
900,0,1,NA
901,1,1,265.091063358479
902,0,1,NA
903,1,1,136.293018417569
904,1,1,160.41345079008
905,1,1,335.59868726684
906,1,1,231.743246438921
907,0,1,NA
908,1,1,231.271950439481
909,0,1,NA
910,1,1,227.459398105613
911,0,1,NA
912,0,1,NA
913,1,1,176.305649975113
914,1,1,87.3034183859987
915,1,1,137.149431557225
916,1,1,224.279704903982
917,1,1,177.597913430151
918,1,1,292.607735830931
919,1,1,177.6118316818
920,1,1,71.0983439079956
921,0,1,NA
922,1,1,307.577302448357
923,0,1,NA
924,1,1,176.169854290185
925,1,1,265.285567724986
926,1,0.99,213.992380237014
927,1,1,112.303240039248
928,1,1,95.9764901179118
929,1,1,212.982622467141
930,0,1,NA
931,0,1,NA
932,0,1,NA
933,1,0.85,352.937415606649
934,0,1,NA
935,1,1,341.640531959967
936,1,1,182.561339557747
937,1,1,158.430436425236
938,1,1,240.705646837606
939,1,0.97,95.7660448111249
940,1,1,194.163436437657
941,1,1,84.4678307927438
942,1,1,191.325757409821
943,1,1,172.452785510866
944,1,0.78,399.586321609812
945,0,1,NA
946,1,1,278.566971900746
947,1,0.78,10.5235291124451
948,1,1,58.2524140840175
949,1,1,219.608800431221
950,0,1,NA
951,1,1,279.26202887223
952,1,1,198.052957833373
953,1,1,301.77500137104
954,1,1,116.25469167346
955,1,1,166.865850947586
956,0,1,NA
957,0,1,NA
958,1,1,143.46369835596
959,1,1,97.8138410941965
960,0,1,NA
961,1,1,63.5505196363368
962,1,1,217.018845833682
963,1,1,199.301833511049
964,1,1,317.640297492429
965,0,1,NA
966,1,1,275.737422465061
967,1,1,70.4634193402535
968,1,1,150.034812368607
969,1,1,301.277754475937
970,1,1,336.086791147958
971,0,1,NA
972,1,1,333.041262456838
973,1,1,225.389598139045
974,1,1,61.4995293576744
975,1,1,204.274504777399
976,0,1,NA
977,1,1,228.633420020699
978,1,1,306.276589451661
979,1,1,166.27639286758
980,1,1,184.882449617568
981,0,1,NA
982,1,1,370.632487467148
983,1,1,183.172430729815
984,1,1,273.946380400685
985,1,1,226.077455038596
986,1,1,262.313964812368
987,1,1,192.803388137886
988,0,1,NA
989,1,1,67.9948413385057
990,1,1,269.678757503244
991,0,1,NA
992,0,1,NA
993,1,1,202.654059916307
994,1,1,323.316877880851
995,1,1,242.602881889766
996,0,1,NA
997,0,1,NA
998,0,1,NA
999,1,1,164.260358661171
1000,1,1,313.44596281056
